   @startuml

 title __BADGES-GUI's Class Diagram__\n

   namespace fr.cnam.foad.nfa035.badges.gui {
     class fr.cnam.foad.nfa035.badges.gui.BadgeWalletGUI {
     }
   }


   namespace fr.cnam.foad.nfa035.badges.gui {
     namespace components {
       class fr.cnam.foad.nfa035.badges.gui.components.BadgePanel {
       }
     }
   }


   namespace fr.cnam.foad.nfa035.badges.gui {
     namespace model {
       class fr.cnam.foad.nfa035.badges.gui.model.BadgesModel {
       }
     }
   }

   namespace fr.cnam.foad.nfa035.badges.gui {
     namespace renderer {
       class fr.cnam.foad.nfa035.badges.gui.renderer.BadgeSizeCellRenderer {
       }
     }
   }


   namespace fr.cnam.foad.nfa035.badges.gui {
     namespace renderer {
       class fr.cnam.foad.nfa035.badges.gui.renderer.DefaultBadgeCellRenderer {
       }
     }
   }


   namespace fr.cnam.foad.nfa035.badges.gui {
     class fr.cnam.foad.nfa035.badges.gui.BadgeWalletGUI {
         ~ tableList : List<DigitalBadge>
         {static} - RESOURCES_PATH : String
         - button1 : JButton
         - panelBas : JPanel
         - panelHaut : JPanel
         - panelImageContainer : JPanel
         - panelParent : JPanel
         - scrollBas : JScrollPane
         - scrollHaut : JScrollPane
         - table1 : JTable
         + BadgeWalletGUI()
         + getIcon()
         {static} + main()
         - createUIComponents()
         - setCreatedUIFields()
     }
   }


   fr.cnam.foad.nfa035.badges.gui.BadgeWalletGUI o-- fr.cnam.foad.nfa035.badges.wallet.model.DigitalBadge : badge
   fr.cnam.foad.nfa035.badges.gui.BadgeWalletGUI o-- fr.cnam.foad.nfa035.badges.gui.components.BadgePanel : badgePanel
   fr.cnam.foad.nfa035.badges.gui.BadgeWalletGUI o-- fr.cnam.foad.nfa035.badges.wallet.dao.DirectAccessBadgeWalletDAO : dao
   fr.cnam.foad.nfa035.badges.gui.components.BadgePanel -up-|> javax.swing.JPanel
   fr.cnam.foad.nfa035.badges.gui.components.BadgePanel o-- fr.cnam.foad.nfa035.badges.wallet.model.DigitalBadge : badge
   fr.cnam.foad.nfa035.badges.gui.components.BadgePanel o-- fr.cnam.foad.nfa035.badges.wallet.dao.DirectAccessBadgeWalletDAO : dao
   fr.cnam.foad.nfa035.badges.gui.model.BadgesModel -up-|> javax.swing.table.AbstractTableModel
   fr.cnam.foad.nfa035.badges.gui.renderer.BadgeSizeCellRenderer -up-|> javax.swing.table.DefaultTableCellRenderer
   fr.cnam.foad.nfa035.badges.gui.renderer.DefaultBadgeCellRenderer -up-|> javax.swing.table.DefaultTableCellRenderer


   namespace fr.cnam.foad.nfa035.badges.gui {
     namespace components {
       class fr.cnam.foad.nfa035.badges.gui.components.BadgePanel {
           + BadgePanel()
           # paintComponent()
       }
     }
   }


   namespace fr.cnam.foad.nfa035.badges.gui {
     namespace model {
       class fr.cnam.foad.nfa035.badges.gui.model.BadgesModel {
           - badges : List<DigitalBadge>
           - entetes : String[]
           {static} - serialVersionUID : long
           + BadgesModel()
           + getColumnClass()
           + getColumnCount()
           + getColumnName()
           + getRowCount()
           + getValueAt()
       }
     }
   }

   namespace fr.cnam.foad.nfa035.badges.gui {
     namespace renderer {
       class fr.cnam.foad.nfa035.badges.gui.renderer.BadgeSizeCellRenderer {
           ~ originBackground : Color
           ~ originForeground : Color
           + BadgeSizeCellRenderer()
           + getTableCellRendererComponent()
           - humanReadableByteCountBin()
       }
     }
   }


   namespace fr.cnam.foad.nfa035.badges.gui {
     namespace renderer {
       class fr.cnam.foad.nfa035.badges.gui.renderer.DefaultBadgeCellRenderer {
           ~ originForeground : Color
           + DefaultBadgeCellRenderer()
           + getTableCellRendererComponent()
       }
     }
   }
 right footer


 PlantUML diagram generated by SketchIt! (https://bitbucket.org/pmesmeur/sketch.it)
 For more information about this tool, please contact philippe.mesmeur@gmail.com
 endfooter

 @enduml